%YAML 1.1
%TAG !u! tag:unity3d.com,2011:
--- !u!114 &11400000
MonoBehaviour:
  m_ObjectHideFlags: 0
  m_CorrespondingSourceObject: {fileID: 0}
  m_PrefabInstance: {fileID: 0}
  m_PrefabAsset: {fileID: 0}
  m_GameObject: {fileID: 0}
  m_Enabled: 1
  m_EditorHideFlags: 0
  m_Script: {fileID: 11500000, guid: a5d3773f38b09cd4c9f5ee44a2511359, type: 3}
  m_Name: Bag
  m_EditorClassIdentifier: 
  icon: {fileID: 21300000, guid: fafea8bfc03187d44861ecc211dcbf23, type: 3}
  stackSize: 0
  bagPrefab: {fileID: 3932556269021176322, guid: 6df874531d798ac419ac2091c3b070c6,
    type: 3}
